{
  "page": 1,
  "total_results": 10000,
  "total_pages": 500,
  "results": [
    {
      "popularity": 474.053,
      "vote_count": 1337,
      "video": false,
      "poster_path": "/wlfDxbGEsW58vGhFljKkcR5IxDj.jpg",
      "id": 545609,
      "adult": false,
      "backdrop_path": "/1R6cvRtZgsYCkh8UFuWFN33xBP4.jpg",
      "original_language": "en",
      "original_title": "Extraction",
      "genre_ids": [28, 18, 53],
      "title": "Extraction",
      "vote_average": 7.5,
      "overview": "Tyler Rake, a fearless mercenary who offers his services on the black market, embarks on a dangerous mission when he is hired to rescue the kidnapped son of a Mumbai crime lord…",
      "release_date": "2020-04-24"
    },
    {
      "popularity": 598.205,
      "id": 419704,
      "video": false,
      "vote_count": 3253,
      "vote_average": 6,
      "title": "Ad Astra",
      "release_date": "2019-09-17",
      "original_language": "en",
      "original_title": "Ad Astra",
      "genre_ids": [878, 18],
      "backdrop_path": "/5BwqwxMEjeFtdknRV792Svo0K1v.jpg",
      "adult": false,
      "overview": "The near future, a time when both hope and hardships drive humanity to look to the stars and beyond. While a mysterious phenomenon menaces to destroy life on planet Earth, astronaut Roy McBride undertakes a mission across the immensity of space and its many perils to uncover the truth about a lost expedition that decades before boldly faced emptiness and silence in search of the unknown.",
      "poster_path": "/xBHvZcjRiWyobQ9kxBhO6B2dtRI.jpg"
    },
    {
      "popularity": 339.787,
      "vote_count": 0,
      "video": false,
      "poster_path": "/mWOkjqqzWiaFC65i2nFuMzM9jne.jpg",
      "id": 668203,
      "adult": false,
      "backdrop_path": "/wuJpiGNGv7wLg52ONizLrOugYp9.jpg",
      "original_language": "en",
      "original_title": "Scary Movie 6",
      "genre_ids": [35, 27, 53],
      "title": "Scary Movie 6",
      "vote_average": 0,
      "overview": "[RUMORED]  The sixth and final installment of the Scary Movie franchise that ignores the fifth film. A parody of Scream 4 and various other horror movies, sequels and reboots that were released between the late 2010's and 2020. Takes place 15 years after the fourth film.",
      "release_date": "2021-04-02"
    },
    {
      "popularity": 310.362,
      "vote_count": 5,
      "video": false,
      "poster_path": "/jR0rLDNv4kGPhdZD1uj6nz1nMSZ.jpg",
      "id": 117084,
      "adult": false,
      "backdrop_path": null,
      "original_language": "ja",
      "original_title": "クレヨンしんちゃん 嵐を呼ぶ アッパレ!戦国大合戦",
      "genre_ids": [16],
      "title": "Crayon Shin-chan: Fierceness That Invites Storm! The Battle of the Warring States",
      "vote_average": 5,
      "overview": "Shin-chan somehow travels back in time, where he promptly involves himself in samurai wars and political intrigue, changing history left and right!",
      "release_date": "2002-04-20"
    },
    {
      "popularity": 259.452,
      "vote_count": 3461,
      "video": false,
      "poster_path": "/aQvJ5WPzZgYVDrxLX4R6cLJCEaQ.jpg",
      "id": 454626,
      "adult": false,
      "backdrop_path": "/stmYfCUGd8Iy6kAMBr6AmWqx8Bq.jpg",
      "original_language": "en",
      "original_title": "Sonic the Hedgehog",
      "genre_ids": [28, 35, 878, 10751],
      "title": "Sonic the Hedgehog",
      "vote_average": 7.5,
      "overview": "Based on the global blockbuster videogame franchise from Sega, Sonic the Hedgehog tells the story of the world’s speediest hedgehog as he embraces his new home on Earth. In this live-action adventure comedy, Sonic and his new best friend team up to defend the planet from the evil genius Dr. Robotnik and his plans for world domination.",
      "release_date": "2020-02-12"
    },
    {
      "popularity": 226.539,
      "vote_count": 2023,
      "video": false,
      "poster_path": "/8WUVHemHFH2ZIP6NWkwlHWsyrEL.jpg",
      "id": 338762,
      "adult": false,
      "backdrop_path": "/ocUrMYbdjknu2TwzMHKT9PBBQRw.jpg",
      "original_language": "en",
      "original_title": "Bloodshot",
      "genre_ids": [28, 878],
      "title": "Bloodshot",
      "vote_average": 7.1,
      "overview": "After he and his wife are murdered, marine Ray Garrison is resurrected by a team of scientists. Enhanced with nanotechnology, he becomes a superhuman, biotech killing machine—'Bloodshot'. As Ray first trains with fellow super-soldiers, he cannot recall anything from his former life. But when his memories flood back and he remembers the man that killed both him and his wife, he breaks out of the facility to get revenge, only to discover that there's more to the conspiracy than he thought.",
      "release_date": "2020-03-05"
    },
    {
      "popularity": 222.661,
      "vote_count": 3,
      "video": false,
      "poster_path": "/oiFxdnsQyGs3DBLzHzW92GrDR6w.jpg",
      "id": 682071,
      "adult": false,
      "backdrop_path": "/6I6ZhQrX4L4KIxSzlgg8zc1BSLr.jpg",
      "original_language": "en",
      "original_title": "To the Beat! Back 2 School",
      "genre_ids": [35, 18, 10751],
      "title": "To the Beat! Back 2 School",
      "vote_average": 4.8,
      "overview": "Sisterhood is tested, rivalries heat up and new bonds are formed when students go back to their performing arts school to compete for an all-expense paid summer scholarship program to a prestigious Conservatory of Fine Arts.",
      "release_date": "2020-03-10"
    },
    {
      "popularity": 186.031,
      "vote_count": 3502,
      "video": false,
      "poster_path": "/h4VB6m0RwcicVEZvzftYZyKXs6K.jpg",
      "id": 495764,
      "adult": false,
      "backdrop_path": "/uozb2VeD87YmhoUP1RrGWfzuCrr.jpg",
      "original_language": "en",
      "original_title": "Birds of Prey (and the Fantabulous Emancipation of One Harley Quinn)",
      "genre_ids": [28, 35, 80],
      "title": "Birds of Prey (and the Fantabulous Emancipation of One Harley Quinn)",
      "vote_average": 7.2,
      "overview": "Harley Quinn joins forces with a singer, an assassin and a police detective to help a young girl who had a hit placed on her after she stole a rare diamond from a crime lord.",
      "release_date": "2020-02-05"
    },
    {
      "popularity": 178.322,
      "vote_count": 989,
      "video": false,
      "poster_path": "/gzlbb3yeVISpQ3REd3Ga1scWGTU.jpg",
      "id": 443791,
      "adult": false,
      "backdrop_path": "/ww7eC3BqSbFsyE5H5qMde8WkxJ2.jpg",
      "original_language": "en",
      "original_title": "Underwater",
      "genre_ids": [28, 27, 878, 53],
      "title": "Underwater",
      "vote_average": 6.4,
      "overview": "After an earthquake destroys their underwater station, six researchers must navigate two miles along the dangerous, unknown depths of the ocean floor to make it to safety in a race against time.",
      "release_date": "2020-01-08"
    },
    {
      "popularity": 167.753,
      "vote_count": 6890,
      "video": false,
      "poster_path": "/7IiTTgloJzvGI1TAYymCfbfl3vT.jpg",
      "id": 496243,
      "adult": false,
      "backdrop_path": "/TU9NIjwzjoKPwQHoHshkFcQUCG.jpg",
      "original_language": "ko",
      "original_title": "기생충",
      "genre_ids": [35, 18, 53],
      "title": "Parasite",
      "vote_average": 8.5,
      "overview": "All unemployed, Ki-taek's family takes peculiar interest in the wealthy and glamorous Parks for their livelihood until they get entangled in an unexpected incident.",
      "release_date": "2019-05-30"
    },
    {
      "popularity": 151.648,
      "vote_count": 4327,
      "video": false,
      "poster_path": "/db32LaOibwEliAmSL2jjDF6oDdj.jpg",
      "id": 181812,
      "adult": false,
      "backdrop_path": "/jOzrELAzFxtMx2I4uDGHOotdfsS.jpg",
      "original_language": "en",
      "original_title": "Star Wars: The Rise of Skywalker",
      "genre_ids": [28, 12, 878],
      "title": "Star Wars: The Rise of Skywalker",
      "vote_average": 6.5,
      "overview": "The surviving Resistance faces the First Order once again as the journey of Rey, Finn and Poe Dameron continues. With the power and knowledge of generations behind them, the final battle begins.",
      "release_date": "2019-12-18"
    },
    {
      "popularity": 175.411,
      "vote_count": 3648,
      "video": false,
      "poster_path": "/y95lQLnuNKdPAzw9F9Ab8kJ80c3.jpg",
      "id": 38700,
      "adult": false,
      "backdrop_path": "/upUy2QhMZEmtypPW3PdieKLAHxh.jpg",
      "original_language": "en",
      "original_title": "Bad Boys for Life",
      "genre_ids": [28, 80, 53],
      "title": "Bad Boys for Life",
      "vote_average": 7.2,
      "overview": "Marcus and Mike are forced to confront new threats, career changes, and midlife crises as they join the newly created elite team AMMO of the Miami police department to take down the ruthless Armando Armas, the vicious leader of a Miami drug cartel.",
      "release_date": "2020-01-15"
    },
    {
      "popularity": 138.722,
      "vote_count": 9225,
      "video": false,
      "poster_path": "/qa6HCwP4Z15l3hpsASz3auugEW6.jpg",
      "id": 920,
      "adult": false,
      "backdrop_path": "/sd4xN5xi8tKRPrJOWwNiZEile7f.jpg",
      "original_language": "en",
      "original_title": "Cars",
      "genre_ids": [12, 16, 35, 10751],
      "title": "Cars",
      "vote_average": 6.8,
      "overview": "Lightning McQueen, a hotshot rookie race car driven to succeed, discovers that life is about the journey, not the finish line, when he finds himself unexpectedly detoured in the sleepy Route 66 town of Radiator Springs. On route across the country to the big Piston Cup Championship in California to compete against two seasoned pros, McQueen gets to know the town's offbeat characters.",
      "release_date": "2006-06-08"
    },
    {
      "popularity": 113.167,
      "vote_count": 890,
      "video": false,
      "poster_path": "/z4A6mFOLTMZAhCSPRyrtzG0SPbd.jpg",
      "id": 475303,
      "adult": false,
      "backdrop_path": "/6fkqwqLEcDZOEAnBBfKAniwNxtx.jpg",
      "original_language": "en",
      "original_title": "A Rainy Day in New York",
      "genre_ids": [35, 10749],
      "title": "A Rainy Day in New York",
      "vote_average": 6.5,
      "overview": "Two young people arrive in New York to spend a weekend, but once they arrive they're met with bad weather and a series of adventures.",
      "release_date": "2019-07-26"
    },
    {
      "popularity": 123.457,
      "vote_count": 126,
      "video": false,
      "poster_path": "/x0g9tzgZKKmNEtwcjS3aF4kduRi.jpg",
      "id": 689723,
      "adult": false,
      "backdrop_path": "/tuqv0jb0o7sBOivgkagKJHuO6X4.jpg",
      "original_language": "en",
      "original_title": "Dangerous Lies",
      "genre_ids": [53],
      "title": "Dangerous Lies",
      "vote_average": 6.3,
      "overview": "After losing her waitressing job, Katie Franklin takes a job as a caretaker to a wealthy elderly man in his sprawling, empty Chicago estate. The two grow close, but when he unexpectedly passes away and names Katie as his sole heir, she and her husband Adam are pulled into a complex web of lies, deception, and murder. If she's going to survive, Katie will have to question everyone's motives — even the people she loves.",
      "release_date": "2020-04-30"
    },
    {
      "popularity": 117.949,
      "vote_count": 3539,
      "video": false,
      "poster_path": "/bB42KDdfWkOvmzmYkmK58ZlCa9P.jpg",
      "id": 512200,
      "adult": false,
      "backdrop_path": "/wNhRNSVQg4qF1oUI7nfFZgR7QAE.jpg",
      "original_language": "en",
      "original_title": "Jumanji: The Next Level",
      "genre_ids": [12, 35, 14],
      "title": "Jumanji: The Next Level",
      "vote_average": 6.9,
      "overview": "As the gang return to Jumanji to rescue one of their own, they discover that nothing is as they expect. The players will have to brave parts unknown and unexplored in order to escape the world’s most dangerous game.",
      "release_date": "2019-12-04"
    },
    {
      "popularity": 115.659,
      "vote_count": 11,
      "video": false,
      "poster_path": "/7BC2Mv2ekyBIto68YOrc1DRARv6.jpg",
      "id": 597295,
      "adult": false,
      "backdrop_path": "/hOREXWuVMG0xSKjdwh6QeOoJDFo.jpg",
      "original_language": "zh",
      "original_title": "我的青春都是你",
      "genre_ids": [35, 10749],
      "title": "Love The Way You Are",
      "vote_average": 3.9,
      "overview": "Opposites clash when spunky girl next door Lin Lin meets eccentric nerd Yuke. Despite being neighbors and schoolmates since childhood, Lin Lin and Yuke barely know each other. When the pair are both admitted into the same university, Lin Lin discovers that Yuke harbors a secret crush for campus beauty, Ruting. Ever the busybody, Lin Lin decides to matchmake Yuke and Ruting, only to find herself gradually falling for Yuke.",
      "release_date": "2019-06-21"
    },
    {
      "popularity": 110.844,
      "vote_count": 711,
      "video": false,
      "poster_path": "/33VdppGbeNxICrFUtW2WpGHvfYc.jpg",
      "id": 481848,
      "adult": false,
      "backdrop_path": "/9sXHqZTet3Zg5tgcc0hCDo8Tn35.jpg",
      "original_language": "en",
      "original_title": "The Call of the Wild",
      "genre_ids": [12, 18, 10751],
      "title": "The Call of the Wild",
      "vote_average": 7.1,
      "overview": "Buck is a big-hearted dog whose blissful domestic life is turned upside down when he is suddenly uprooted from his California home and transplanted to the exotic wilds of the Yukon during the Gold Rush of the 1890s. As the newest rookie on a mail delivery dog sled team—and later its leader—Buck experiences the adventure of a lifetime, ultimately finding his true place in the world and becoming his own master.",
      "release_date": "2020-02-19"
    },
    {
      "popularity": 92.907,
      "vote_count": 17916,
      "video": false,
      "poster_path": "/7WsyChQLEftFiDOVTGkv3hFpyyt.jpg",
      "id": 299536,
      "adult": false,
      "backdrop_path": "/lmZFxXgJE3vgrciwuDib0N8CfQo.jpg",
      "original_language": "en",
      "original_title": "Avengers: Infinity War",
      "genre_ids": [28, 12, 878],
      "title": "Avengers: Infinity War",
      "vote_average": 8.3,
      "overview": "As the Avengers and their allies have continued to protect the world from threats too large for any one hero to handle, a new danger has emerged from the cosmic shadows: Thanos. A despot of intergalactic infamy, his goal is to collect all six Infinity Stones, artifacts of unimaginable power, and use them to inflict his twisted will on all of reality. Everything the Avengers have fought for has led up to this moment - the fate of Earth and existence itself has never been more uncertain.",
      "release_date": "2018-04-25"
    },
    {
      "popularity": 109.352,
      "vote_count": 12080,
      "video": false,
      "poster_path": "/udDclJoHjfjb8Ekgsd4FDteOkCU.jpg",
      "id": 475557,
      "adult": false,
      "backdrop_path": "/f5F4cRhQdUbyVbB5lTNCwUzD6BP.jpg",
      "original_language": "en",
      "original_title": "Joker",
      "genre_ids": [80, 18, 53],
      "title": "Joker",
      "vote_average": 8.2,
      "overview": "During the 1980s, a failed stand-up comedian is driven insane and turns to a life of crime and chaos in Gotham City while becoming an infamous psychopathic crime figure.",
      "release_date": "2019-10-02"
    }
  ]
}
